<svg width="18" height="19" viewBox="0 0 18 19" fill="none" xmlns="http://www.w3.org/2000/svg">
<path d="M16.207 9.29492H16.0664V7.71289C16.0664 6.72852 15.8848 5.81445 15.5215 4.9707C15.1582 4.13867 14.6543 3.41797 14.0098 2.80859C13.377 2.19922 12.6328 1.72461 11.7773 1.38477C10.9102 1.04492 9.98438 0.875 9 0.875C8.01562 0.875 7.08398 1.04492 6.20508 1.38477C5.32617 1.72461 4.55859 2.19922 3.90234 2.80859C3.25781 3.41797 2.74805 4.13867 2.37305 4.9707C1.98633 5.81445 1.79297 6.72852 1.79297 7.71289V9.29492C1.5 9.29492 1.22461 9.41797 0.966797 9.66406C0.708984 9.91016 0.580078 10.1914 0.580078 10.5078V17.6973C0.580078 18.0371 0.708984 18.3184 0.966797 18.541C1.22461 18.7637 1.5 18.875 1.79297 18.875H16.0664C16.4297 18.875 16.7227 18.752 16.9453 18.5059C17.168 18.2598 17.2793 17.9785 17.2793 17.6621L17.4199 10.4551C17.4199 10.1035 17.291 9.82227 17.0332 9.61133C16.7754 9.40039 16.5 9.29492 16.207 9.29492ZM11.3906 14.0586H10.1777V16.4492H7.78711V14.0586H6.57422V12.8457C6.57422 12.8457 6.67383 12.5234 6.87305 11.8789C7.07227 11.2344 7.76367 10.9121 8.94727 10.9121C10.1426 10.9121 10.8398 11.2344 11.0391 11.8789C11.2383 12.5234 11.3379 12.8457 11.3379 12.8457V14.0586H11.3906ZM4.9043 9.29492V7.71289C4.9043 7.13867 5.00977 6.62305 5.2207 6.16602C5.43164 5.70898 5.71875 5.31641 6.08203 4.98828C6.45703 4.66016 6.89648 4.4082 7.40039 4.23242C7.89258 4.06836 8.42578 3.98633 9 3.98633C9.57422 3.98633 10.1016 4.06836 10.582 4.23242C11.0742 4.4082 11.4961 4.66016 11.8477 4.98828C12.1992 5.31641 12.4688 5.70898 12.6562 6.16602C12.8555 6.62305 12.9551 7.13867 12.9551 7.71289V9.29492H4.9043Z" fill="#118799"/>
</svg>
